void main()
const byte* main::SCREEN = (byte*) 1024
volatile byte main::b1 loadstore zp[1]:4 0.36363636363636365
volatile byte main::b2 loadstore zp[1]:5 0.36363636363636365
volatile byte main::b3 loadstore zp[1]:6 0.36363636363636365
void setByte(byte* setByte::ptr , byte setByte::b)
byte setByte::b
byte setByte::b#3 reg byte x 11.0
byte* setByte::ptr
byte* setByte::ptr#3 ptr zp[2]:2 11.0

reg byte x [ setByte::b#3 ]
zp[2]:2 [ setByte::ptr#3 ]
zp[1]:4 [ main::b1 ]
zp[1]:5 [ main::b2 ]
zp[1]:6 [ main::b3 ]
