const byte GREEN = 5
const byte RED = 2
const byte* cols = (byte*) 55296
void main()
byte main::a
byte main::i
const byte* ref[]  = { 3, 4, 3, $12, 9, 1, 4, 2, 4, 5, 1, 0 }
const byte* screen1 = (byte*) 1024
byte* screen2
const byte* screen2#0 screen2 = screen1+$28
void test(byte test::i , byte test::a)
byte test::a
byte test::a#11 a zp[1]:2 7.333333333333333
byte test::i
byte test::i#11 reg byte x 16.5

zp[1]:2 [ test::a#11 ]
reg byte x [ test::i#11 ]
