void bool_and()
byte~ bool_and::$1 reg byte a 101.0
byte bool_and::i
byte bool_and::i#1 reg byte x 151.5
byte bool_and::i#2 reg byte x 100.99999999999999
bool bool_and::o1
bool bool_and::o2
bool bool_and::o3
const nomodify byte* bool_and::screen = (byte*) 1024
void bool_complex()
byte~ bool_complex::$1 reg byte a 202.0
byte bool_complex::i
byte bool_complex::i#1 reg byte y 151.5
byte bool_complex::i#2 reg byte y 60.6
bool bool_complex::o1
bool bool_complex::o1#0 reg byte x 60.599999999999994
bool bool_complex::o2
bool bool_complex::o2#0 reg byte a 75.75
bool bool_complex::o3
bool bool_complex::o4
bool bool_complex::o5
const nomodify byte* bool_complex::screen = (byte*) 1144
void bool_not()
byte~ bool_not::$1 reg byte a 101.0
byte bool_not::i
byte bool_not::i#1 reg byte x 151.5
byte bool_not::i#2 reg byte x 100.99999999999999
bool bool_not::o1
bool bool_not::o2
bool bool_not::o3
const nomodify byte* bool_not::screen = (byte*) 1104
void bool_or()
byte~ bool_or::$1 reg byte a 101.0
byte bool_or::i
byte bool_or::i#1 reg byte x 151.5
byte bool_or::i#2 reg byte x 100.99999999999999
bool bool_or::o1
bool bool_or::o2
bool bool_or::o3
const nomodify byte* bool_or::screen = (byte*) 1064
void main()

reg byte x [ bool_and::i#2 bool_and::i#1 ]
reg byte x [ bool_or::i#2 bool_or::i#1 ]
reg byte x [ bool_not::i#2 bool_not::i#1 ]
reg byte y [ bool_complex::i#2 bool_complex::i#1 ]
reg byte a [ bool_and::$1 ]
reg byte a [ bool_or::$1 ]
reg byte a [ bool_not::$1 ]
reg byte x [ bool_complex::o1#0 ]
reg byte a [ bool_complex::$1 ]
reg byte a [ bool_complex::o2#0 ]
