void main()
byte* main::cc
byte* main::cc#1 cc zp[2]:4 22.0
byte* main::cc#2 cc zp[2]:4 14.666666666666666
const nomodify byte* main::cols = (byte*) 55296
byte* main::sc
byte* main::sc#1 sc zp[2]:2 22.0
byte* main::sc#2 sc zp[2]:2 14.666666666666666
const nomodify byte* main::screen = (byte*) 1024

zp[2]:2 [ main::sc#2 main::sc#1 ]
zp[2]:4 [ main::cc#2 main::cc#1 ]
