volatile byte A loadstore zp[1]:2 19.0
const byte* SCREEN = (byte*) 1024
void __start()
void main()
const byte main::B = 'b'
const byte* main::addrA = &A
void sub()
const byte sub::C = 'c'
byte sub::D
byte sub::D#0 reg byte x 202.0

zp[1]:2 [ A ]
reg byte x [ sub::D#0 ]
