const nomodify byte* CHARSET = (byte*) 8192
const word* CORDIC_ATAN2_ANGLES_16[CORDIC_ITERATIONS_16]  = kickasm {{ .for (var i=0; i<CORDIC_ITERATIONS_16; i++)
        .word 256*2*256*atan(1/pow(2,i))/PI/2
 }}
const nomodify byte CORDIC_ITERATIONS_16 = $f
const nomodify byte* D018 = (byte*) 53272
const byte* FONT_HEX_PROTO[]  = { 2, 5, 5, 5, 2, 6, 2, 2, 2, 7, 6, 1, 2, 4, 7, 6, 1, 2, 1, 6, 5, 5, 7, 1, 1, 7, 4, 6, 1, 6, 3, 4, 6, 5, 2, 7, 1, 1, 1, 1, 2, 5, 2, 5, 2, 2, 5, 3, 1, 1, 2, 5, 7, 5, 5, 6, 5, 6, 5, 6, 2, 5, 4, 5, 2, 6, 5, 5, 5, 6, 7, 4, 6, 4, 7, 7, 4, 6, 4, 4 }
const nomodify byte* RASTER = (byte*) 53266
const nomodify byte* SCREEN = (byte*) 10240
word atan2_16(signed word atan2_16::x , signed word atan2_16::y)
signed word~ atan2_16::$2 zp[2]:11 20002.0
byte~ atan2_16::$22 reg byte a 2.0000002E7
byte~ atan2_16::$23 reg byte a 2.0000002E7
signed word~ atan2_16::$7 zp[2]:13 20002.0
word atan2_16::angle
word atan2_16::angle#1 angle zp[2]:15 15001.5
word atan2_16::angle#11 angle zp[2]:15 20002.0
word atan2_16::angle#12 angle zp[2]:15 1904762.0952380951
word atan2_16::angle#13 angle zp[2]:15 1.3333334666666666E7
word atan2_16::angle#2 angle zp[2]:15 2.0000002E7
word atan2_16::angle#3 angle zp[2]:15 2.0000002E7
word atan2_16::angle#4 angle zp[2]:15 20002.0
word atan2_16::angle#5 angle zp[2]:15 20002.0
word atan2_16::angle#6 angle zp[2]:15 2.0010003E7
byte atan2_16::i
byte atan2_16::i#1 reg byte x 1.50000015E7
byte atan2_16::i#2 reg byte x 2083333.5416666665
word atan2_16::return
word atan2_16::return#0 return zp[2]:15 7001.0
word atan2_16::return#2 return zp[2]:15 2002.0
byte atan2_16::shift
byte atan2_16::shift#1 reg byte y 2.00000002E8
byte atan2_16::shift#2 reg byte y 8.000000125E7
byte atan2_16::shift#5 reg byte y 6666667.333333333
signed word atan2_16::x
signed word atan2_16::x#0 x zp[2]:21 1079.078947368421
signed word atan2_16::xd
signed word atan2_16::xd#1 xd zp[2]:19 6.6666667333333336E7
signed word atan2_16::xd#10 xd zp[2]:19 1.0000001E7
signed word atan2_16::xd#2 xd zp[2]:19 1.0000001E7
signed word atan2_16::xd#3 xd zp[2]:19 7.666666833333333E7
signed word atan2_16::xd#5 xd zp[2]:19 1.0000001E7
signed word atan2_16::xi
signed word atan2_16::xi#0 xi zp[2]:13 30003.0
signed word atan2_16::xi#1 xi zp[2]:13 5000000.5
signed word atan2_16::xi#13 xi zp[2]:13 20002.0
signed word atan2_16::xi#2 xi zp[2]:13 5000000.5
signed word atan2_16::xi#3 xi zp[2]:13 2667333.6666666665
signed word atan2_16::xi#8 xi zp[2]:13 1.0000001E7
signed word atan2_16::y
signed word atan2_16::y#0 y zp[2]:23 1025.125
signed word atan2_16::yd
signed word atan2_16::yd#1 yd zp[2]:17 1.00000001E8
signed word atan2_16::yd#10 yd zp[2]:17 2.0000002E7
signed word atan2_16::yd#2 yd zp[2]:17 2.0000002E7
signed word atan2_16::yd#3 yd zp[2]:17 4.6000001E7
signed word atan2_16::yd#5 yd zp[2]:17 2.0000002E7
signed word atan2_16::yi
signed word atan2_16::yi#0 yi zp[2]:11 6000.6
signed word atan2_16::yi#1 yi zp[2]:11 6666667.333333333
signed word atan2_16::yi#16 yi zp[2]:11 20002.0
signed word atan2_16::yi#2 yi zp[2]:11 6666667.333333333
signed word atan2_16::yi#3 yi zp[2]:11 3530000.4117647056
signed word atan2_16::yi#8 yi zp[2]:11 1.0000001E7
void init_angle_screen(byte* init_angle_screen::screen)
byte~ init_angle_screen::$10 reg byte a 2002.0
byte~ init_angle_screen::$11 reg byte a 2002.0
byte~ init_angle_screen::$3 reg byte a 2002.0
byte~ init_angle_screen::$4 reg byte a 2002.0
byte~ init_angle_screen::$5 reg byte a 2002.0
word~ init_angle_screen::$7 zp[2]:15 2002.0
byte~ init_angle_screen::$9 reg byte a 2002.0
byte init_angle_screen::ang_w
byte init_angle_screen::ang_w#0 ang_w zp[1]:25 715.0
word init_angle_screen::angle_w
word init_angle_screen::angle_w#0 angle_w zp[2]:15 2002.0
byte* init_angle_screen::screen
byte* init_angle_screen::screen_bottomline
byte* init_angle_screen::screen_bottomline#1 screen_bottomline zp[2]:7 67.33333333333333
byte* init_angle_screen::screen_bottomline#6 screen_bottomline zp[2]:7 88.16
byte* init_angle_screen::screen_topline
byte* init_angle_screen::screen_topline#1 screen_topline zp[2]:5 50.5
byte* init_angle_screen::screen_topline#6 screen_topline zp[2]:5 91.83333333333334
byte init_angle_screen::x
byte init_angle_screen::x#1 x zp[1]:9 1001.0
byte init_angle_screen::x#2 x zp[1]:9 286.0
byte init_angle_screen::xb
byte init_angle_screen::xb#1 xb zp[1]:10 2002.0
byte init_angle_screen::xb#2 xb zp[1]:10 182.0
signed word init_angle_screen::xw
word init_angle_screen::xw#0 xw zp[2]:21 333.6666666666667
byte init_angle_screen::y
byte init_angle_screen::y#1 y zp[1]:4 151.5
byte init_angle_screen::y#5 y zp[1]:4 46.26923076923077
signed word init_angle_screen::yw
word init_angle_screen::yw#0 yw zp[2]:23 500.5
void init_font_hex(byte* init_font_hex::charset)
byte~ init_font_hex::$0 zp[1]:25 10001.0
byte~ init_font_hex::$1 reg byte a 20002.0
byte~ init_font_hex::$2 reg byte a 20002.0
byte init_font_hex::c
byte init_font_hex::c#1 c zp[1]:4 151.5
byte init_font_hex::c#6 c zp[1]:4 10.631578947368421
byte init_font_hex::c1
byte init_font_hex::c1#1 c1 zp[1]:9 1501.5
byte init_font_hex::c1#4 c1 zp[1]:9 133.46666666666667
byte* init_font_hex::charset
byte* init_font_hex::charset#0 charset zp[2]:7 350.5
byte* init_font_hex::charset#2 charset zp[2]:7 1079.0714285714287
byte* init_font_hex::charset#5 charset zp[2]:7 202.0
byte init_font_hex::i
byte init_font_hex::i#1 reg byte x 15001.5
byte init_font_hex::i#2 reg byte x 6667.333333333333
byte init_font_hex::idx
byte init_font_hex::idx#2 idx zp[1]:10 5501.0
byte init_font_hex::idx#3 reg byte y 2002.0
byte init_font_hex::idx#5 idx zp[1]:10 6000.6
byte* init_font_hex::proto_hi
byte* init_font_hex::proto_hi#1 proto_hi zp[2]:5 67.33333333333333
byte* init_font_hex::proto_hi#6 proto_hi zp[2]:5 566.8333333333333
byte* init_font_hex::proto_lo
byte* init_font_hex::proto_lo#1 proto_lo zp[2]:11 500.5
byte* init_font_hex::proto_lo#4 proto_lo zp[2]:11 923.3076923076923
void main()
byte* main::clear_char
byte* main::clear_char#1 clear_char zp[2]:2 22.0
byte* main::clear_char#5 clear_char zp[2]:2 84.0
byte* main::toD0181_gfx
byte main::toD0181_return
const byte main::toD0181_return#0 toD0181_return = >(word)SCREEN&$3fff*4|>(word)CHARSET/4&$f
byte* main::toD0181_screen

zp[2]:2 [ main::clear_char#5 main::clear_char#1 ]
reg byte x [ init_font_hex::i#2 init_font_hex::i#1 ]
zp[1]:4 [ init_angle_screen::y#5 init_angle_screen::y#1 init_font_hex::c#6 init_font_hex::c#1 ]
zp[2]:5 [ init_angle_screen::screen_topline#6 init_angle_screen::screen_topline#1 init_font_hex::proto_hi#6 init_font_hex::proto_hi#1 ]
zp[2]:7 [ init_angle_screen::screen_bottomline#6 init_angle_screen::screen_bottomline#1 init_font_hex::charset#2 init_font_hex::charset#5 init_font_hex::charset#0 ]
zp[1]:9 [ init_angle_screen::x#2 init_angle_screen::x#1 init_font_hex::c1#4 init_font_hex::c1#1 ]
zp[1]:10 [ init_angle_screen::xb#2 init_angle_screen::xb#1 init_font_hex::idx#5 init_font_hex::idx#2 ]
zp[2]:11 [ atan2_16::yi#3 atan2_16::yi#8 atan2_16::yi#0 atan2_16::yi#16 atan2_16::$2 atan2_16::yi#1 atan2_16::yi#2 init_font_hex::proto_lo#4 init_font_hex::proto_lo#1 ]
zp[2]:13 [ atan2_16::xi#3 atan2_16::xi#8 atan2_16::xi#0 atan2_16::xi#13 atan2_16::$7 atan2_16::xi#1 atan2_16::xi#2 ]
reg byte x [ atan2_16::i#2 atan2_16::i#1 ]
zp[2]:15 [ atan2_16::angle#6 atan2_16::angle#12 atan2_16::angle#13 atan2_16::angle#2 atan2_16::angle#3 atan2_16::return#0 atan2_16::angle#11 atan2_16::angle#1 atan2_16::angle#4 atan2_16::angle#5 atan2_16::return#2 init_angle_screen::angle_w#0 init_angle_screen::$7 ]
reg byte y [ atan2_16::shift#2 atan2_16::shift#5 atan2_16::shift#1 ]
zp[2]:17 [ atan2_16::yd#5 atan2_16::yd#3 atan2_16::yd#10 atan2_16::yd#1 atan2_16::yd#2 ]
zp[2]:19 [ atan2_16::xd#5 atan2_16::xd#3 atan2_16::xd#10 atan2_16::xd#1 atan2_16::xd#2 ]
reg byte a [ init_font_hex::$1 ]
reg byte a [ init_font_hex::$2 ]
reg byte y [ init_font_hex::idx#3 ]
reg byte a [ init_angle_screen::$3 ]
reg byte a [ init_angle_screen::$4 ]
zp[2]:21 [ init_angle_screen::xw#0 atan2_16::x#0 ]
reg byte a [ init_angle_screen::$5 ]
zp[2]:23 [ init_angle_screen::yw#0 atan2_16::y#0 ]
zp[1]:25 [ init_angle_screen::ang_w#0 init_font_hex::$0 ]
reg byte a [ init_angle_screen::$9 ]
reg byte a [ init_angle_screen::$10 ]
reg byte a [ init_angle_screen::$11 ]
reg byte a [ atan2_16::$23 ]
reg byte a [ atan2_16::$22 ]
