byte f1(byte f1::x)
byte f1::return
const byte f1::return#1 return = f2::return#1+1
byte f1::x
byte f10(byte f10::x)
byte f10::return
const byte f10::return#1 return = f11::return#1+1
byte f10::x
byte f11(byte f11::x)
byte f11::return
const byte f11::return#1 return = f12::return#1+1
byte f11::x
byte f12(byte f12::x)
byte f12::return
const byte f12::return#1 return = f13::return#1+1
byte f12::x
byte f13(byte f13::x)
byte f13::return
const byte f13::return#1 return = f14::return#1+1
byte f13::x
byte f14(byte f14::x)
byte f14::return
const byte f14::return#1 return = f15::return#1+1
byte f14::x
byte f15(byte f15::x)
byte f15::return
const byte f15::return#1 return = f16::return#1+1
byte f15::x
byte f16(byte f16::x)
byte f16::return
const byte f16::return#1 return = f17::return#1+1
byte f16::x
byte f17(byte f17::x)
byte f17::return
const byte f17::return#1 return = f18::return#1+1
byte f17::x
byte f18(byte f18::x)
byte f18::return
const byte f18::return#1 return = f19::return#1+1
byte f18::x
byte f19(byte f19::x)
byte f19::return
const byte f19::return#1 return = f20::return#1+1
byte f19::x
byte f2(byte f2::x)
byte f2::return
const byte f2::return#1 return = f3::return#1+1
byte f2::x
byte f20(byte f20::x)
byte f20::return
const byte f20::return#1 return = f21::return#1+1
byte f20::x
byte f21(byte f21::x)
byte f21::return
const byte f21::return#1 return = f22::return#1+1
byte f21::x
byte f22(byte f22::x)
byte f22::return
const byte f22::return#1 return = f23::return#1+1
byte f22::x
byte f23(byte f23::x)
byte f23::return
const byte f23::return#1 return = f24::return#1+1
byte f23::x
byte f24(byte f24::x)
byte f24::return
const byte f24::return#1 return = f25::return#1+1
byte f24::x
byte f25(byte f25::x)
byte f25::return
const byte f25::return#1 return = f26::return#1+1
byte f25::x
byte f26(byte f26::x)
byte f26::return
const byte f26::return#1 return = f27::return#1+1
byte f26::x
byte f27(byte f27::x)
byte f27::return
const byte f27::return#1 return = f28::return#1+1
byte f27::x
byte f28(byte f28::x)
byte f28::return
const byte f28::return#1 return = f29::return#1+1
byte f28::x
byte f29(byte f29::x)
byte f29::return
const byte f29::return#1 return = f30::return#1+1
byte f29::x
byte f3(byte f3::x)
byte f3::return
const byte f3::return#1 return = f4::return#1+1
byte f3::x
byte f30(byte f30::x)
byte f30::return
const byte f30::return#1 return = f31::return#1+1
byte f30::x
byte f31(byte f31::x)
byte f31::return
const byte f31::return#1 return = f32::return#1+1
byte f31::x
byte f32(byte f32::x)
byte f32::return
const byte f32::return#1 return = f33::return#1+1
byte f32::x
byte f33(byte f33::x)
byte f33::return
const byte f33::return#1 return = f34::return#1+1
byte f33::x
byte f34(byte f34::x)
byte f34::return
const byte f34::return#1 return = f35::return#1+1
byte f34::x
byte f35(byte f35::x)
byte f35::return
const byte f35::return#1 return = f36::return#1+1
byte f35::x
byte f36(byte f36::x)
byte f36::return
const byte f36::return#1 return = f37::return#1+1
byte f36::x
byte f37(byte f37::x)
byte f37::return
const byte f37::return#1 return = f38::return#1+1
byte f37::x
byte f38(byte f38::x)
byte f38::return
const byte f38::return#1 return = f39::return#1+1
byte f38::x
byte f39(byte f39::x)
byte f39::return
const byte f39::return#1 return = f40::return#1+1
byte f39::x
byte f4(byte f4::x)
byte f4::return
const byte f4::return#1 return = f5::return#1+1
byte f4::x
byte f40(byte f40::x)
byte f40::return
const byte f40::return#1 return = f41::return#1+1
byte f40::x
byte f41(byte f41::x)
byte f41::return
const byte f41::return#1 return = f42::return#1+1
byte f41::x
byte f42(byte f42::x)
byte f42::return
const byte f42::return#1 return = f43::return#1+1
byte f42::x
byte f43(byte f43::x)
byte f43::return
const byte f43::return#1 return = f44::return#1+1
byte f43::x
byte f44(byte f44::x)
byte f44::return
const byte f44::return#1 return = f45::return#1+1
byte f44::x
byte f45(byte f45::x)
byte f45::return
const byte f45::return#1 return = f46::return#1+1
byte f45::x
byte f46(byte f46::x)
byte f46::return
const byte f46::return#1 return = f47::return#1+1
byte f46::x
byte f47(byte f47::x)
byte f47::return
const byte f47::return#1 return = f48::return#1+1
byte f47::x
byte f48(byte f48::x)
byte f48::return
const byte f48::return#1 return = f49::return#1+1
byte f48::x
byte f49(byte f49::x)
byte f49::return
const byte f49::return#1 return = f50::return#1+1
byte f49::x
byte f5(byte f5::x)
byte f5::return
const byte f5::return#1 return = f6::return#1+1
byte f5::x
byte f50(byte f50::x)
byte f50::return
const byte f50::return#1 return = f51::return#1+1
byte f50::x
byte f51(byte f51::x)
byte f51::return
const byte f51::return#1 return = f52::return#1+1
byte f51::x
byte f52(byte f52::x)
byte f52::return
const byte f52::return#1 return = f53::return#1+1
byte f52::x
byte f53(byte f53::x)
byte f53::return
const byte f53::return#1 return = f54::return#1+1
byte f53::x
byte f54(byte f54::x)
byte f54::return
const byte f54::return#1 return = f55::return#1+1
byte f54::x
byte f55(byte f55::x)
byte f55::return
const byte f55::return#1 return = f56::return#1+1
byte f55::x
byte f56(byte f56::x)
byte f56::return
const byte f56::return#1 return = f57::return#1+1
byte f56::x
byte f57(byte f57::x)
byte f57::return
const byte f57::return#1 return = f58::return#1+1
byte f57::x
byte f58(byte f58::x)
byte f58::return
const byte f58::return#1 return = f59::return#1+1
byte f58::x
byte f59(byte f59::x)
byte f59::return
const byte f59::return#1 return = f60::return#1+1
byte f59::x
byte f6(byte f6::x)
byte f6::return
const byte f6::return#1 return = f7::return#1+1
byte f6::x
byte f60(byte f60::x)
byte f60::return
const byte f60::return#1 return = f61::return#1+1
byte f60::x
byte f61(byte f61::x)
byte f61::return
const byte f61::return#1 return = f62::return#1+1
byte f61::x
byte f62(byte f62::x)
byte f62::return
const byte f62::return#1 return = f63::return#1+1
byte f62::x
byte f63(byte f63::x)
byte f63::return
const byte f63::return#1 return = f64::return#1+1
byte f63::x
byte f64(byte f64::x)
byte f64::return
const byte f64::return#1 return = f65::return#1+1
byte f64::x
byte f65(byte f65::x)
byte f65::return
const byte f65::return#1 return = f66::return#1+1
byte f65::x
byte f66(byte f66::x)
byte f66::return
const byte f66::return#1 return = f67::return#1+1
byte f66::x
byte f67(byte f67::x)
byte f67::return
const byte f67::return#1 return = f68::return#1+1
byte f67::x
byte f68(byte f68::x)
byte f68::return
const byte f68::return#1 return = f69::return#1+1
byte f68::x
byte f69(byte f69::x)
byte f69::return
const byte f69::return#1 return = f70::return#1+1
byte f69::x
byte f7(byte f7::x)
byte f7::return
const byte f7::return#1 return = f8::return#1+1
byte f7::x
byte f70(byte f70::x)
byte f70::return
const byte f70::return#1 return = f71::return#1+1
byte f70::x
byte f71(byte f71::x)
byte f71::return
const byte f71::return#1 return = f72::return#1+1
byte f71::x
byte f72(byte f72::x)
byte f72::return
const byte f72::return#1 return = f73::return#1+1
byte f72::x
byte f73(byte f73::x)
byte f73::return
const byte f73::return#1 return = f74::return#1+1
byte f73::x
byte f74(byte f74::x)
byte f74::return
const byte f74::return#1 return = f75::return#1+1
byte f74::x
byte f75(byte f75::x)
byte f75::return
const byte f75::return#1 return = f76::return#1+1
byte f75::x
byte f76(byte f76::x)
byte f76::return
const byte f76::return#1 return = f77::return#1+1
byte f76::x
byte f77(byte f77::x)
byte f77::return
const byte f77::return#1 return = f78::return#1+1
byte f77::x
byte f78(byte f78::x)
byte f78::return
const byte f78::return#1 return = f79::return#1+1
byte f78::x
byte f79(byte f79::x)
byte f79::return
const byte f79::return#1 return = f80::return#1+1
byte f79::x
byte f8(byte f8::x)
byte f8::return
const byte f8::return#1 return = f9::return#1+1
byte f8::x
byte f80(byte f80::x)
byte f80::return
const byte f80::return#1 return = f81::return#1+1
byte f80::x
byte f81(byte f81::x)
byte f81::return
const byte f81::return#1 return = f82::return#1+1
byte f81::x
byte f82(byte f82::x)
byte f82::return
const byte f82::return#1 return = f83::return#1+1
byte f82::x
byte f83(byte f83::x)
byte f83::return
const byte f83::return#1 return = f84::return#1+1
byte f83::x
byte f84(byte f84::x)
byte f84::return
const byte f84::return#1 return = f85::return#1+1
byte f84::x
byte f85(byte f85::x)
byte f85::return
const byte f85::return#1 return = f86::return#1+1
byte f85::x
byte f86(byte f86::x)
byte f86::return
const byte f86::return#1 return = f87::return#1+1
byte f86::x
byte f87(byte f87::x)
byte f87::return
const byte f87::return#1 return = f88::return#1+1
byte f87::x
byte f88(byte f88::x)
byte f88::return
const byte f88::return#1 return = f89::return#1+1
byte f88::x
byte f89(byte f89::x)
byte f89::return
const byte f89::return#1 return = f90::return#1+1
byte f89::x
byte f9(byte f9::x)
byte f9::return
const byte f9::return#1 return = f10::return#1+1
byte f9::x
byte f90(byte f90::x)
byte f90::return
const byte f90::return#1 return = f91::return#1+1
byte f90::x
byte f91(byte f91::x)
byte f91::return
const byte f91::return#1 return = f92::return#1+1
byte f91::x
byte f92(byte f92::x)
byte f92::return
const byte f92::return#1 return = f93::return#1+1
byte f92::x
byte f93(byte f93::x)
byte f93::return
const byte f93::return#1 return = f94::return#1+1
byte f93::x
byte f94(byte f94::x)
byte f94::return
const byte f94::return#1 return = f95::return#1+1
byte f94::x
byte f95(byte f95::x)
byte f95::return
const byte f95::return#1 return = f96::return#1+1
byte f95::x
byte f96(byte f96::x)
byte f96::return
const byte f96::return#1 return = f97::return#1+1
byte f96::x
byte f97(byte f97::x)
byte f97::return
const byte f97::return#1 return = f98::return#1+1
byte f97::x
byte f98(byte f98::x)
byte f98::return
const byte f98::return#1 return = f99::return#1+1
byte f98::x
byte f99(byte f99::x)
byte f99::return
const byte f99::return#1 return = 1
byte f99::x
void main()
const byte* main::screen = (byte*) 1024

