
CONTROL FLOW GRAPH SSA

void main()
main: scope:[main]  from __start
  *main::SCREEN = main::state
  to:main::@return
main::@return: scope:[main]  from main
  return 
  to:@return

void __start()
__start: scope:[__start]  from
  call main 
  to:__start::@1
__start::@1: scope:[__start]  from __start
  to:__start::@return
__start::@return: scope:[__start]  from __start::@1
  return 
  to:@return

SYMBOL TABLE SSA
const byte ON = 1
const byte State::OFF = 0
const byte State::ON = 1
void __start()
void main()
const nomodify byte* main::SCREEN = (byte*)$400
const byte main::state = ON

Simplifying constant pointer cast (byte*) 1024
Successful SSA optimization PassNCastSimplification
Removing unused procedure __start
Removing unused procedure block __start
Removing unused procedure block __start::@1
Removing unused procedure block __start::@return
Successful SSA optimization PassNEliminateEmptyStart
Constant inlined main::state = ON
Successful SSA optimization Pass2ConstantInlining
CALL GRAPH

Created 0 initial phi equivalence classes
Coalesced down to 0 phi equivalence classes

FINAL CONTROL FLOW GRAPH

void main()
main: scope:[main]  from
  [0] *main::SCREEN = ON
  to:main::@return
main::@return: scope:[main]  from main
  [1] return 
  to:@return


VARIABLE REGISTER WEIGHTS
void main()

Initial phi equivalence classes
Complete equivalence classes
REGISTER UPLIFT POTENTIAL REGISTERS
Statement [0] *main::SCREEN = ON [ ] (  [ ] { }  ) always clobbers reg byte a 

REGISTER UPLIFT SCOPES
Uplift Scope [State] 
Uplift Scope [main] 
Uplift Scope [] 

Uplifting [State] best 15 combination 
Uplifting [main] best 15 combination 
Uplifting [] best 15 combination 

ASSEMBLER BEFORE OPTIMIZATION
  // File Comments
// Test of simple enum - two-value enum
  // Upstart
.pc = $801 "Basic"
:BasicUpstart(main)
.pc = $80d "Program"
  // Global Constants & labels
  .const ON = 1
  // main
main: {
    .label SCREEN = $400
    // [0] *main::SCREEN = ON -- _deref_pbuc1=vbuc2 
    lda #ON
    sta SCREEN
    jmp __breturn
    // main::@return
  __breturn:
    // [1] return 
    rts
}
  // File Data

ASSEMBLER OPTIMIZATIONS
Removing instruction jmp __breturn
Succesful ASM optimization Pass5NextJumpElimination
Removing instruction __breturn:
Succesful ASM optimization Pass5UnusedLabelElimination

FINAL SYMBOL TABLE
const byte ON = 1
const byte State::OFF = 0
const byte State::ON = 1
void main()
const nomodify byte* main::SCREEN = (byte*) 1024



FINAL ASSEMBLER
Score: 12

  // File Comments
// Test of simple enum - two-value enum
  // Upstart
.pc = $801 "Basic"
:BasicUpstart(main)
.pc = $80d "Program"
  // Global Constants & labels
  .const ON = 1
  // main
main: {
    .label SCREEN = $400
    // *SCREEN = state
    // [0] *main::SCREEN = ON -- _deref_pbuc1=vbuc2 
    lda #ON
    sta SCREEN
    // main::@return
    // }
    // [1] return 
    rts
}
  // File Data

