byte fct(byte fct::x , byte* fct::z)
byte fct::a !reg byte a
byte fct::return
byte fct::return#0 reg byte a 4.0
byte fct::return#1 reg byte a 4.0
byte fct::return#2 reg byte a 3.75
byte fct::x !reg byte x
byte fct::x#2 !reg byte x 11.0
byte* fct::z
byte* fct::z#2 z zp[2]:2 11.0
void main()
byte main::a1
byte main::a1#0 reg byte a 4.0
byte main::a2
byte main::a2#0 reg byte a 4.0
const byte* main::screen = (byte*) 1024
byte main::x
byte* main::z

reg byte x [ fct::x#2 ]
zp[2]:2 [ fct::z#2 ]
reg byte a [ fct::return#0 ]
reg byte a [ main::a1#0 ]
reg byte a [ fct::return#1 ]
reg byte a [ main::a2#0 ]
reg byte a [ fct::return#2 ]
