void main()
const byte* main::hello = "hello world!"
byte* main::print21_at
byte main::print21_i
byte main::print21_i#1 reg byte y 22.0
byte main::print21_i#2 reg byte y 11.0
byte main::print21_j
byte main::print21_j#1 reg byte x 11.0
byte main::print21_j#2 reg byte x 11.0
byte* main::print21_msg
byte* main::print22_at
const byte* main::print22_at#0 print22_at = screen+$50
byte main::print22_i
byte main::print22_i#1 reg byte y 22.0
byte main::print22_i#2 reg byte y 11.0
byte main::print22_j
byte main::print22_j#1 reg byte x 11.0
byte main::print22_j#2 reg byte x 11.0
byte* main::print22_msg
const byte* screen = (byte*) 1024

reg byte y [ main::print21_i#2 main::print21_i#1 ]
reg byte x [ main::print21_j#2 main::print21_j#1 ]
reg byte y [ main::print22_i#2 main::print22_i#1 ]
reg byte x [ main::print22_j#2 main::print22_j#1 ]
