const nomodify byte* SCREEN = (byte*) 1024
void main()
byte main::i
byte main::i#1 reg byte x 22.0
byte main::i#2 reg byte x 11.0
byte main::value loadstore zp[1]:2 4.0

reg byte x [ main::i#2 main::i#1 ]
zp[1]:2 [ main::value ]
