void main()
byte~ main::$2 reg byte y 33.0
byte main::i
byte main::i#1 reg byte x 22.0
byte main::i#2 reg byte x 8.8
const word* v[5]  = { fill( 5, 0) }
const word* x[5]  = { fill( 5, 0) }

reg byte x [ main::i#2 main::i#1 ]
reg byte y [ main::$2 ]
