const nomodify byte* BG_COLOR = (byte*) 53281
const nomodify byte BLACK = 0
const nomodify void()** KERNEL_IRQ = (void()**) 788
const nomodify byte WHITE = 1
interrupt(KERNEL_KEYBOARD) void irq()
void main()

