const signed word* ball_y[8]  = { $32, $64, -$c8, $c, -$64, $4b, 0, -$79 }
void main()
byte~ main::$1 reg byte a 4.0
byte~ main::$2 reg byte a 4.0
byte~ main::$4 reg byte x 2.0
byte main::hit_check
byte main::hit_check#0 reg byte a 3.0
const nomodify byte* main::screen = (byte*) 1024
byte scan_for_lowest()
byte~ scan_for_lowest::$4 reg byte x 151.5
signed word scan_for_lowest::height
signed word scan_for_lowest::height#1 height zp[2]:2 101.0
signed word scan_for_lowest::height#2 height zp[2]:2 75.75
signed word scan_for_lowest::height#4 height zp[2]:2 151.5
byte scan_for_lowest::i
byte scan_for_lowest::i#1 reg byte y 202.0
byte scan_for_lowest::i#2 reg byte y 72.14285714285714
byte scan_for_lowest::lowest
byte scan_for_lowest::lowest#2 lowest zp[1]:4 34.0
byte scan_for_lowest::lowest#4 lowest zp[1]:4 151.5
byte scan_for_lowest::lowest#8 lowest zp[1]:4 202.0
byte scan_for_lowest::return
byte scan_for_lowest::return#0 reg byte a 4.0

reg byte y [ scan_for_lowest::i#2 scan_for_lowest::i#1 ]
zp[2]:2 [ scan_for_lowest::height#2 scan_for_lowest::height#4 scan_for_lowest::height#1 ]
zp[1]:4 [ scan_for_lowest::lowest#2 scan_for_lowest::lowest#4 scan_for_lowest::lowest#8 ]
reg byte a [ scan_for_lowest::return#0 ]
reg byte a [ main::hit_check#0 ]
reg byte x [ main::$4 ]
reg byte a [ main::$1 ]
reg byte a [ main::$2 ]
reg byte x [ scan_for_lowest::$4 ]
