
CONTROL FLOW GRAPH SSA

void main()
main: scope:[main]  from __start
  *((byte*)$400) = matrixSizeMask
  to:main::@return
main::@return: scope:[main]  from main
  return 
  to:@return

void __start()
__start: scope:[__start]  from
  call main 
  to:__start::@1
__start::@1: scope:[__start]  from __start
  to:__start::@return
__start::@return: scope:[__start]  from __start::@1
  return 
  to:@return

SYMBOL TABLE SSA
void __start()
void main()
const nomodify byte matrixSize = 8
const nomodify byte matrixSizeMask = (byte)$ff-matrixSize-1

Adding number conversion cast (unumber) 1 in 
Successful SSA optimization PassNAddNumberTypeConversions
Adding number conversion cast (unumber) $ff in 
Successful SSA optimization PassNAddNumberTypeConversions
Simplifying constant integer cast $ff
Simplifying constant integer cast 1
Simplifying constant pointer cast (byte*) 1024
Successful SSA optimization PassNCastSimplification
Finalized unsigned number type $ff
Finalized unsigned number type 1
Successful SSA optimization PassNFinalizeNumberTypeConversions
Removing unused procedure __start
Removing unused procedure block __start
Removing unused procedure block __start::@1
Removing unused procedure block __start::@return
Successful SSA optimization PassNEliminateEmptyStart
Simplifying constant integer cast $ff-matrixSize-1
Successful SSA optimization PassNCastSimplification
CALL GRAPH

Created 0 initial phi equivalence classes
Coalesced down to 0 phi equivalence classes

FINAL CONTROL FLOW GRAPH

void main()
main: scope:[main]  from
  [0] *((byte*) 1024) = matrixSizeMask
  to:main::@return
main::@return: scope:[main]  from main
  [1] return 
  to:@return


VARIABLE REGISTER WEIGHTS
void main()

Initial phi equivalence classes
Complete equivalence classes
REGISTER UPLIFT POTENTIAL REGISTERS
Statement [0] *((byte*) 1024) = matrixSizeMask [ ] (  [ ] { }  ) always clobbers reg byte a 

REGISTER UPLIFT SCOPES
Uplift Scope [main] 
Uplift Scope [] 

Uplifting [main] best 15 combination 
Uplifting [] best 15 combination 

ASSEMBLER BEFORE OPTIMIZATION
  // File Comments
  // Upstart
.pc = $801 "Basic"
:BasicUpstart(main)
.pc = $80d "Program"
  // Global Constants & labels
  .const matrixSize = 8
  .const matrixSizeMask = $ff-(matrixSize-1)
  // main
main: {
    // [0] *((byte*) 1024) = matrixSizeMask -- _deref_pbuc1=vbuc2 
    lda #matrixSizeMask
    sta $400
    jmp __breturn
    // main::@return
  __breturn:
    // [1] return 
    rts
}
  // File Data

ASSEMBLER OPTIMIZATIONS
Removing instruction jmp __breturn
Succesful ASM optimization Pass5NextJumpElimination
Removing instruction __breturn:
Succesful ASM optimization Pass5UnusedLabelElimination

FINAL SYMBOL TABLE
void main()
const nomodify byte matrixSize = 8
const nomodify byte matrixSizeMask = $ff-matrixSize-1



FINAL ASSEMBLER
Score: 12

  // File Comments
  // Upstart
.pc = $801 "Basic"
:BasicUpstart(main)
.pc = $80d "Program"
  // Global Constants & labels
  .const matrixSize = 8
  .const matrixSizeMask = $ff-(matrixSize-1)
  // main
main: {
    // *((unsigned char *)0x400) = matrixSizeMask
    // [0] *((byte*) 1024) = matrixSizeMask -- _deref_pbuc1=vbuc2 
    lda #matrixSizeMask
    sta $400
    // main::@return
    // }
    // [1] return 
    rts
}
  // File Data

