const byte SIZEOF_SIGNED_WORD = 2
signed word foo(byte foo::x , signed word* foo::y)
byte~ foo::$1 reg byte a 22.0
signed word foo::return
signed word foo::return#0 return zp[2]:2 3.75
signed word foo::return#2 return zp[2]:2 4.0
signed word foo::return#3 return zp[2]:2 4.0
byte foo::x
byte foo::x#2 reg byte x 11.0
signed word* foo::y
signed word* foo::y#2 y zp[2]:2 5.5
void main()
signed word~ main::$0 zp[2]:2 4.0
signed word~ main::$1 zp[2]:2 4.0
signed word* main::SCREEN
const signed word* main::SCREEN#0 SCREEN = (signed word*) 1024
volatile signed word main::y1 loadstore zp[2]:4 20.0
volatile signed word main::y2 loadstore zp[2]:6 20.0
const signed word* wow[4]  = { $cafe, $babe, $1234, $5678 }

reg byte x [ foo::x#2 ]
zp[2]:2 [ foo::y#2 foo::return#0 foo::return#2 main::$0 foo::return#3 main::$1 ]
zp[2]:4 [ main::y1 ]
zp[2]:6 [ main::y2 ]
reg byte a [ foo::$1 ]
