void fill(byte* fill::screen , byte fill::ch)
byte*~ fill::$5 zp[2]:4 202.0
byte*~ fill::$7 zp[2]:6 202.0
byte fill::ch
byte fill::ch#4 reg byte x 33.666666666666664
byte fill::i
byte fill::i#1 reg byte y 151.5
byte fill::i#4 reg byte y 84.16666666666666
byte fill::j
byte* fill::screen
byte* fill::screen#4 screen zp[2]:2 33.666666666666664
void main()

zp[2]:2 [ fill::screen#4 ]
reg byte x [ fill::ch#4 ]
reg byte y [ fill::i#4 fill::i#1 ]
zp[2]:4 [ fill::$5 ]
zp[2]:6 [ fill::$7 ]
