void main()
byte~ main::$1 reg byte a 22.0
const byte* main::bscreen = (byte*) 1024
byte main::i
byte main::i#1 reg byte x 16.5
byte main::i#2 reg byte x 11.0
word* main::wscreen
const word* main::wscreen#0 wscreen = (word*)main::bscreen

reg byte x [ main::i#2 main::i#1 ]
reg byte a [ main::$1 ]
