const nomodify byte* SCREEN = (byte*) 1024
const word STACK_BASE = $103
void main()
byte~ main::$0 reg byte a 4.0
__stackcall byte plus(byte plus::a , byte plus::b)
const byte plus::OFFSET_STACK_A = 1
const byte plus::OFFSET_STACK_B = 0
const byte plus::OFFSET_STACK_RETURN = 1
byte plus::a
byte plus::a#0 a zp[1]:2 11.0
byte plus::b
byte plus::b#0 reg byte a 22.0
byte plus::return
byte plus::return#0 reg byte a 22.0

zp[1]:2 [ plus::a#0 ]
reg byte a [ plus::b#0 ]
reg byte a [ plus::return#0 ]
reg byte a [ main::$0 ]
