const nomodify byte* SCREEN = (byte*) 1024
byte idx
byte idx#12 reg byte x 12.0
byte idx#13 reg byte x 3.25
byte idx#3 reg byte x 16.5
void main()
byte main::p1_x
byte main::p1_y
const byte main::p1_y#1 p1_y = 4
void print(byte print::p_x , byte print::p_y)
struct Point print::p
byte print::p_x
byte print::p_x#2 reg byte a 11.0
byte print::p_y

reg byte a [ print::p_x#2 ]
reg byte x [ idx#12 idx#13 ]
reg byte x [ idx#3 ]
