const byte OFFSET_STRUCT_POINT_Y = 1
const byte OFFSET_STRUCT_POINT_Z = 2
const byte SIZEOF_STRUCT_POINT = 3
void main()
signed byte~ main::$0 zp[1]:3 5.5
byte~ main::$3 reg byte y 14.666666666666666
byte~ main::$4 reg byte a 22.0
byte~ main::$5 reg byte a 22.0
byte~ main::$7 reg byte a 22.0
const nomodify struct Point* main::SCREEN = (struct Point*) 1024
byte main::i
byte main::i#1 reg byte x 16.5
byte main::i#2 reg byte x 6.285714285714286
byte main::i1
byte main::i1#1 i1 zp[1]:2 16.5
byte main::i1#2 i1 zp[1]:2 11.0
const struct Point* points[4]  = { fill( 4, 0) }

reg byte x [ main::i#2 main::i#1 ]
zp[1]:2 [ main::i1#2 main::i1#1 ]
zp[1]:3 [ main::$0 ]
reg byte a [ main::$5 ]
reg byte y [ main::$3 ]
reg byte a [ main::$7 ]
reg byte a [ main::$4 ]
