const struct Point $0 = { x: 2, initials: { 'j', 'g' } }
const byte OFFSET_STRUCT_POINT_INITIALS = 1
const nomodify byte* SCREEN = (byte*) 1024
const byte SIZEOF_STRUCT_POINT = 3
void main()
struct Point main::point1 loadstore zp[3]:2

zp[3]:2 [ main::point1 ]
