const byte OFFSET_STRUCT_POINT_Y = 1
const nomodify struct Point* SCREEN = (struct Point*) 1024
struct Point get(byte get::i)
byte get::i
byte get::i#1 reg byte a 22.0
byte get::p_x
const byte get::p_y = 7
struct Point get::return
byte get::return_x
byte get::return_x#0 reg byte a 4.0
byte get::return_x#1 reg byte a 22.0
byte get::return_x#2 reg byte a 6.0
byte get::return_y
void main()
byte~ main::$0_x reg byte a 4.0
byte~ main::$1_x zp[1]:2 11.0
byte~ main::$3 reg byte x 16.5
byte main::i
byte main::i#1 reg byte y 16.5
byte main::i#2 reg byte y 5.5

reg byte y [ main::i#2 main::i#1 ]
reg byte a [ get::return_x#2 get::i#1 ]
reg byte a [ get::return_x#0 ]
reg byte a [ main::$0_x ]
reg byte a [ get::return_x#1 ]
zp[1]:2 [ main::$1_x ]
reg byte x [ main::$3 ]
