const byte OFFSET_STRUCT_POINT_Y = 1
const byte SIZEOF_STRUCT_POINT = 2
void main()
const nomodify byte* main::SCREEN = (byte*) 1024
struct Point point1 loadstore mem[2] = {}
struct Point point2 loadstore mem[2] = {}

mem[2] [ point1 ]
mem[2] [ point2 ]
