void main()
byte~ main::$0 reg byte a 22.0
byte~ main::$1 reg byte a 22.0
byte~ main::$2 reg byte a 22.0
byte~ main::$3 reg byte a 22.0
byte main::i
byte main::i#1 i zp[1]:2 16.5
byte main::i#2 i zp[1]:2 4.888888888888889
byte* main::screen
byte* main::screen#1 screen zp[2]:3 8.25
byte* main::screen#2 screen zp[2]:3 7.333333333333333
byte* main::screen#3 screen zp[2]:3 8.25

zp[1]:2 [ main::i#2 main::i#1 ]
zp[2]:3 [ main::screen#3 main::screen#2 main::screen#1 ]
reg byte a [ main::$0 ]
reg byte a [ main::$1 ]
reg byte a [ main::$2 ]
reg byte a [ main::$3 ]
