void main()
byte~ main::$0 reg byte a 22.0
const nomodify byte* main::SCREEN = (byte*) 1024
byte main::i
byte main::i#1 reg byte x 16.5
byte main::i#2 reg byte x 13.2

reg byte x [ main::i#2 main::i#1 ]
reg byte a [ main::$0 ]
