const nomodify byte* SCREEN = (byte*) 1024
const byte a = 'a'
void main()
byte~ main::$0 reg byte a 22.0
byte main::b
byte main::b#1 reg byte y 16.5
byte main::b#2 reg byte y 4.714285714285714
byte main::i
byte main::i#1 reg byte x 7.333333333333333
byte main::i#2 reg byte x 5.5
byte sum(byte sum::a , byte sum::b)
byte sum::a
byte sum::b
byte sum::b#0 reg byte a 112.0
byte sum::r
byte sum::return
byte sum::return#0 reg byte a 22.0
byte sum::return#1 reg byte a 37.33333333333333

reg byte y [ main::b#2 main::b#1 ]
reg byte x [ main::i#2 main::i#1 ]
reg byte a [ sum::b#0 ]
reg byte a [ sum::return#0 ]
reg byte a [ main::$0 ]
reg byte a [ sum::return#1 ]
