const byte SIZEOF_SIGNED_WORD = 2
void main()
const byte* main::SCREEN = (byte*) 1024
const signed word* main::SCREEN2 = (signed word*) 1064
const byte main::i = (byte)+3
const signed word main::j = (signed word)+3

