
CONTROL FLOW GRAPH SSA

void main()
main: scope:[main]  from __start
  main::screen[0] = 1
  to:main::@return
main::@return: scope:[main]  from main
  return 
  to:@return

void __start()
__start: scope:[__start]  from
  call main 
  to:__start::@1
__start::@1: scope:[__start]  from __start
  to:__start::@return
__start::@return: scope:[__start]  from __start::@1
  return 
  to:@return

SYMBOL TABLE SSA
void __start()
void main()
const byte* main::screen = (byte*)$400

Adding number conversion cast (unumber) 1 in main::screen[0] = 1
Adding number conversion cast (unumber) 0 in main::screen[0] = ((unumber)) 1
Successful SSA optimization PassNAddNumberTypeConversions
Inlining cast main::screen[(unumber)0] = (unumber)1
Successful SSA optimization Pass2InlineCast
Simplifying constant pointer cast (byte*) 1024
Simplifying constant integer cast 1
Simplifying constant integer cast 0
Successful SSA optimization PassNCastSimplification
Finalized unsigned number type 1
Finalized unsigned number type 0
Successful SSA optimization PassNFinalizeNumberTypeConversions
Simplifying expression containing zero main::screen in [0] main::screen[0] = 1
Successful SSA optimization PassNSimplifyExpressionWithZero
Removing unused procedure __start
Removing unused procedure block __start
Removing unused procedure block __start::@1
Removing unused procedure block __start::@return
Successful SSA optimization PassNEliminateEmptyStart
CALL GRAPH

Created 0 initial phi equivalence classes
Coalesced down to 0 phi equivalence classes

FINAL CONTROL FLOW GRAPH

void main()
main: scope:[main]  from
  [0] *main::screen = 1
  to:main::@return
main::@return: scope:[main]  from main
  [1] return 
  to:@return


VARIABLE REGISTER WEIGHTS
void main()

Initial phi equivalence classes
Complete equivalence classes
REGISTER UPLIFT POTENTIAL REGISTERS
Statement [0] *main::screen = 1 [ ] (  [ ] { }  ) always clobbers reg byte a 

REGISTER UPLIFT SCOPES
Uplift Scope [main] 
Uplift Scope [] 

Uplifting [main] best 15 combination 
Uplifting [] best 15 combination 

ASSEMBLER BEFORE OPTIMIZATION
  // File Comments
  // Upstart
.pc = $801 "Basic"
:BasicUpstart(main)
.pc = $80d "Program"
  // Global Constants & labels
  // main
main: {
    .label screen = $400
    // [0] *main::screen = 1 -- _deref_pbuc1=vbuc2 
    lda #1
    sta screen
    jmp __breturn
    // main::@return
  __breturn:
    // [1] return 
    rts
}
  // File Data

ASSEMBLER OPTIMIZATIONS
Removing instruction jmp __breturn
Succesful ASM optimization Pass5NextJumpElimination
Removing instruction __breturn:
Succesful ASM optimization Pass5UnusedLabelElimination

FINAL SYMBOL TABLE
void main()
const byte* main::screen = (byte*) 1024



FINAL ASSEMBLER
Score: 12

  // File Comments
  // Upstart
.pc = $801 "Basic"
:BasicUpstart(main)
.pc = $80d "Program"
  // Global Constants & labels
  // main
main: {
    .label screen = $400
    // screen[0] = 1
    // [0] *main::screen = 1 -- _deref_pbuc1=vbuc2 
    lda #1
    sta screen
    // main::@return
    // }
    // [1] return 
    rts
}
  // File Data

