const byte SIZEOF_WORD = 2
void main()
byte~ main::$1 reg byte a 4.0
byte~ main::$2 reg byte a 4.0
byte~ main::$4 reg byte a 4.0
byte~ main::$5 reg byte a 4.0
const nomodify byte* main::SCREEN = (byte*)$400+6*$28
word main::w1
word main::w1#0 w1 zp[2]:2 2.0
word main::w2
word main::w2#0 w2 zp[2]:4 2.0
const word* main::words = (word*) 1024

zp[2]:2 [ main::w1#0 ]
reg byte a [ main::$1 ]
reg byte a [ main::$2 ]
zp[2]:4 [ main::w2#0 ]
reg byte a [ main::$4 ]
reg byte a [ main::$5 ]
