const byte OFFSET_STRUCT_MOS6569_VICII_BG_COLOR = $21
const byte OFFSET_STRUCT_MOS6569_VICII_BORDER_COLOR = $20
const byte OFFSET_STRUCT_MOS6569_VICII_RASTER = $12
const nomodify struct MOS6569_VICII* VICII = (struct MOS6569_VICII*) 53248
void main()
void raster()
byte raster::col
byte raster::col#0 reg byte a 202.0
byte raster::col#1 reg byte a 10001.0
byte raster::col#2 reg byte a 15052.0
byte raster::i
byte raster::i#1 reg byte x 7500.75
byte raster::i#2 reg byte x 6667.333333333333
const byte* rastercols[]  = { $b, 0, $b, $b, $c, $b, $c, $c, $f, $c, $f, $f, 1, $f, 1, 1, $f, 1, $f, $f, $c, $f, $c, $c, $b, $c, $b, $b, 0, $b, 0, $ff }

reg byte a [ raster::col#2 raster::col#0 raster::col#1 ]
reg byte x [ raster::i#2 raster::i#1 ]
